<svg xmlns="http://www.w3.org/2000/svg" viewBox="0 0 6 9" width="6" height="9">
	<style>
		tspan { white-space:pre }
		.shp0 { fill: #dadfe8 } 
	</style>
	<g id="Date">
		<g id="Add Logo">
			<path id="Shape 1" class="shp0" d="M5.28,4.44l-3.58,-3.63c-0.08,-0.08 -0.19,-0.13 -0.31,-0.13c-0.12,0 -0.23,0.05 -0.31,0.13l-0.26,0.27c-0.17,0.17 -0.17,0.46 0,0.63l3.01,3.05l-3,3.06c-0.08,0.08 -0.13,0.2 -0.13,0.32c0,0.12 0.05,0.23 0.13,0.32l0.26,0.27c0.08,0.08 0.19,0.13 0.31,0.13c0.12,0 0.23,-0.05 0.31,-0.13l3.58,-3.64c0.08,-0.08 0.13,-0.2 0.13,-0.32c0,-0.12 -0.05,-0.23 -0.13,-0.32z" />
		</g>
	</g>
</svg>