<svg xmlns="http://www.w3.org/2000/svg" viewBox="0 0 21 22" width="21" height="22">
	<style>
		tspan { white-space:pre }
		.shp0 { fill: #3f73ff } 
	</style>
	<g id="INVOICE FROM">
		<path id="Forma 1" class="shp0" d="M10.47 1.46C15.51 1.45 19.61 5.61 19.62 10.73C19.62 15.85 15.53 20.02 10.49 20.03C5.46 20.04 1.35 15.87 1.35 10.75C1.34 5.63 5.44 1.46 10.47 1.46M10.47 0.13C4.71 0.14 0.04 4.9 0.04 10.76C0.05 16.62 4.73 21.36 10.49 21.36C16.26 21.35 20.93 16.59 20.92 10.73C20.92 4.87 16.24 0.12 10.47 0.13L10.47 0.13ZM16.31 14.28L16.25 14.1C16.11 13.69 15.66 13.25 15.24 13.14L13.69 12.71C13.28 12.59 12.68 12.75 12.37 13.06L11.82 13.63C9.79 13.07 8.19 11.46 7.64 9.4L8.2 8.83C8.51 8.52 8.66 7.91 8.54 7.48L8.12 5.92C8.01 5.49 7.58 5.03 7.17 4.89L6.99 4.83C6.58 4.69 5.99 4.83 5.69 5.15L4.85 6C4.7 6.15 4.61 6.58 4.61 6.58C4.58 9.28 5.62 11.88 7.5 13.78C9.37 15.68 11.92 16.73 14.57 16.71C14.58 16.71 15.02 16.61 15.17 16.46L16 15.61C16.31 15.3 16.44 14.7 16.31 14.28Z" />
	</g>
</svg>